John Doe

John Doe
Jane Smith

Jane Smith
John Doe

John Doe
Jane Smith
Sirhan Sirhan

Bill Young

Junie B. Jones

Thor

Tony Stark
Steve Rogers
Bruce Banner
Natasha Romanoff
James Rhodes
Thor
Peter Parker

Bruce Wayne

Clark Kent
Diana Prince
Bruce Wayne
Barry Allen
John Stewart

George Washington

Mole

Hawkman

Pluckers
