Remus Lupin

Rowena Ravenclaw

Rubeus Hagrid

Professor Albus Percival Wulfric Brian Dumbledore

Neville Longbottom

Professor Albus Percival Wulfric Brian Dumbledore

Hedwig

Dobby

Fred Weasley

Rubeus Hagrid
Sirius Black
